Lecture/Lecture 8/simulation/qsim/jk_counter.msim.vcd
$comment
	File created using the following command:
		vcd file jk_counter.msim.vcd -direction
$end
$date
	Wed Oct 04 09:04:04 2023
$end
$version
	ModelSim Version 10.5b
$end
$timescale
	1ps
$end

$scope module jk_counter_vlg_vec_tst $end
$var reg 1 ! clock $end
$var reg 1 " dir $end
$var wire 1 # counter [3] $end
$var wire 1 $ counter [2] $end
$var wire 1 % counter [1] $end
$var wire 1 & counter [0] $end

$scope module i1 $end
$var wire 1 ' gnd $end
$var wire 1 ( vcc $end
$var wire 1 ) unknown $end
$var tri1 1 * devclrn $end
$var tri1 1 + devpor $end
$var tri1 1 , devoe $end
$var wire 1 - counter[3]~output_o $end
$var wire 1 . counter[2]~output_o $end
$var wire 1 / counter[1]~output_o $end
$var wire 1 0 counter[0]~output_o $end
$var wire 1 1 clock~input_o $end
$var wire 1 2 inst~0_combout $end
$var wire 1 3 inst~q $end
$var wire 1 4 dir~input_o $end
$var wire 1 5 inst9~combout $end
$var wire 1 6 inst1~0_combout $end
$var wire 1 7 inst1~q $end
$var wire 1 8 inst10~combout $end
$var wire 1 9 inst2~0_combout $end
$var wire 1 : inst2~q $end
$var wire 1 ; inst11~combout $end
$var wire 1 < inst4~0_combout $end
$var wire 1 = inst4~q $end
$upscope $end
$upscope $end
$enddefinitions $end
#0
$dumpvars
0!
0"
0&
0%
0$
0#
0'
1(
x)
1*
1+
1,
0-
0.
0/
00
01
12
03
04
05
16
07
08
19
0:
0;
1<
0=
$end
#10000
1"
14
1;
18
15
1=
1:
17
1/
1.
1-
1#
1$
1%
08
06
0;
09
0<
#25000
1!
11
13
10
1&
05
02
#50000
0!
01
#75000
1!
11
03
00
0&
15
12
07
0/
0%
18
16
0:
0.
0$
1;
19
0=
0-
0#
1<
#100000
0!
01
#125000
1!
11
13
10
1&
05
02
#150000
0!
01
#175000
1!
11
03
00
0&
15
12
17
1/
1%
08
06
#200000
0!
01
#225000
1!
11
13
10
1&
05
02
#250000
0!
01
#275000
1!
11
03
00
0&
15
12
07
0/
0%
18
16
1:
1.
1$
0;
09
#300000
0!
01
#325000
1!
11
13
10
1&
05
02
#350000
0!
01
#375000
1!
11
03
00
0&
15
12
17
1/
1%
08
06
#400000
0!
01
#420000
0"
04
1;
18
05
1=
0:
0.
1-
1#
0$
0;
19
0<
#425000
1!
11
13
10
1&
15
02
07
0/
0%
08
16
#450000
0!
01
#475000
1!
11
03
00
0&
05
12
#500000
0!
01
#525000
1!
11
13
10
1&
15
02
17
1/
1%
18
06
1:
1.
1$
1;
09
0=
0-
0#
1<
#550000
0!
01
#575000
1!
11
03
00
0&
05
12
#600000
0!
01
#625000
1!
11
13
10
1&
15
02
07
0/
0%
08
16
#650000
0!
01
#675000
1!
11
03
00
0&
05
12
#700000
0!
01
#725000
1!
11
13
10
1&
15
02
17
1/
1%
18
06
0:
0.
0$
0;
19
#750000
0!
01
#775000
1!
11
03
00
0&
05
12
#800000
0!
01
#825000
1!
11
13
10
1&
15
02
07
0/
0%
08
16
#850000
0!
01
#875000
1!
11
03
00
0&
05
12
#900000
0!
01
#925000
1!
11
13
10
1&
15
02
17
1/
1%
18
06
1:
1.
1$
1;
09
1=
1-
1#
0<
#950000
0!
01
#975000
1!
11
03
00
0&
05
12
