Lab/Lab 2/display7/simulation/qsim/display7.msim.vcd
$comment
	File created using the following command:
		vcd file display7.msim.vcd -direction
$end
$date
	Thu Sep 21 09:29:54 2023
$end
$version
	ModelSim Version 10.5b
$end
$timescale
	1ps
$end

$scope module display7_vlg_vec_tst $end
$var reg 4 ! In [3:0] $end
$var wire 1 " a $end
$var wire 1 # b $end
$var wire 1 $ c $end
$var wire 1 % d $end
$var wire 1 & e $end
$var wire 1 ' f $end
$var wire 1 ( g $end

$scope module i1 $end
$var wire 1 ) gnd $end
$var wire 1 * vcc $end
$var wire 1 + unknown $end
$var tri1 1 , devclrn $end
$var tri1 1 - devpor $end
$var tri1 1 . devoe $end
$var wire 1 / ~QUARTUS_CREATED_GND~I_combout $end
$var wire 1 0 In[2]~input_o $end
$var wire 1 1 In[0]~input_o $end
$var wire 1 2 In[3]~input_o $end
$var wire 1 3 In[1]~input_o $end
$var wire 1 4 or1~combout $end
$var wire 1 5 or2~0_combout $end
$var wire 1 6 and5~0_combout $end
$var wire 1 7 inst2~combout $end
$var wire 1 8 or3~0_combout $end
$var wire 1 9 or4~0_combout $end
$var wire 1 : or5~combout $end
$upscope $end
$upscope $end
$enddefinitions $end
#0
$dumpvars
b0 !
0"
0#
0$
0%
0&
0'
1(
0)
1*
x+
1,
1-
1.
0/
00
01
02
03
04
05
06
07
08
09
1:
$end
#100000
b1 !
11
19
18
17
14
1"
1&
1%
1'
#200000
b11 !
b10 !
01
13
0:
08
07
16
04
0"
1$
0&
0%
0(
#300000
b11 !
11
17
06
0$
1&
#400000
b111 !
b101 !
b100 !
01
03
10
09
18
14
1"
1%
0'
#500000
b101 !
11
08
15
04
0"
1#
0%
#600000
b111 !
b110 !
01
13
07
0&
#700000
b111 !
11
1:
19
18
17
05
0#
1&
1%
1'
1(
#800000
b1111 !
b1011 !
b1001 !
b1000 !
01
03
00
12
0:
09
08
07
0&
0%
0'
0(
#900000
b1001 !
11
17
1&
