Homework/Homework 1/simulation/qsim/HW1.msim.vcd
$comment
	File created using the following command:
		vcd file HW1.msim.vcd -direction
$end
$date
	Thu Sep 21 20:06:13 2023
$end
$version
	ModelSim Version 10.5b
$end
$timescale
	1ps
$end

$scope module HW1_vlg_vec_tst $end
$var reg 3 ! IN [2:0] $end
$var wire 1 " OUT [4] $end
$var wire 1 # OUT [3] $end
$var wire 1 $ OUT [2] $end
$var wire 1 % OUT [1] $end
$var wire 1 & OUT [0] $end

$scope module i1 $end
$var wire 1 ' gnd $end
$var wire 1 ( vcc $end
$var wire 1 ) unknown $end
$var tri1 1 * devclrn $end
$var tri1 1 + devpor $end
$var tri1 1 , devoe $end
$var wire 1 - OUT[4]~output_o $end
$var wire 1 . OUT[3]~output_o $end
$var wire 1 / OUT[2]~output_o $end
$var wire 1 0 OUT[1]~output_o $end
$var wire 1 1 OUT[0]~output_o $end
$var wire 1 2 IN[2]~input_o $end
$var wire 1 3 IN[1]~input_o $end
$var wire 1 4 inst49~combout $end
$var wire 1 5 IN[0]~input_o $end
$var wire 1 6 inst44~combout $end
$var wire 1 7 inst37~0_combout $end
$var wire 1 8 inst34~0_combout $end
$var wire 1 9 inst28~0_combout $end
$upscope $end
$upscope $end
$enddefinitions $end
#0
$dumpvars
b0 !
0&
0%
0$
0#
0"
0'
1(
x)
1*
1+
1,
0-
0.
0/
00
01
02
03
04
05
06
07
08
09
$end
#125000
b1 !
15
19
18
10
11
1&
1%
#250000
b11 !
b10 !
05
13
17
1/
1$
#375000
b11 !
15
09
08
07
16
1.
0/
00
01
0&
0%
0$
1#
#500000
b111 !
b101 !
b100 !
05
03
12
17
1/
1$
#625000
b101 !
15
19
18
10
11
1&
1%
#750000
b111 !
b110 !
05
13
09
07
06
14
1-
0.
0/
01
0&
0$
0#
1"
#875000
b111 !
15
19
08
17
1/
00
11
1&
0%
1$
